<svg xmlns="http://www.w3.org/2000/svg" width="5" height="2.999" viewBox="0 0 5 2.999">
    <path id="caret-down" fill="#989ba3" d="M92.241 151l2.133 2.317a.384.384 0 0 0 .556 0L97.063 151a.339.339 0 0 0-.278-.563h-4.267a.339.339 0 0 0-.277.563z" transform="translate(-92.152 -150.44)"/>
</svg>
