<svg xmlns="http://www.w3.org/2000/svg" id="Icon_more-hor_24" width="24" height="24" data-name="Icon/more-hor/24" viewBox="0 0 24 24">
    <defs>
        <style>
            .cls-2{fill:#a6afc1}
        </style>
    </defs>
    <g id="ellipsis-horizontal" transform="rotate(90 170.469 5.073)">
        <circle id="Ellipse_18" cx="1.846" cy="1.846" r="1.846" class="cls-2" data-name="Ellipse 18" transform="translate(175.397 161.695)"/>
        <circle id="Ellipse_19" cx="1.846" cy="1.846" r="1.846" class="cls-2" data-name="Ellipse 19" transform="translate(175.397 167.849)"/>
        <circle id="Ellipse_20" cx="1.846" cy="1.846" r="1.846" class="cls-2" data-name="Ellipse 20" transform="translate(175.397 155.541)"/>
    </g>
</svg>
