<svg xmlns="http://www.w3.org/2000/svg" id="Icon_Add_24" width="24" height="24" data-name="Icon/Add/24" viewBox="0 0 24 24">
    <path id="add-circle" fill="#18a76a" d="M57 48a9 9 0 1 0 9 9 9.01 9.01 0 0 0-9-9zm3.462 9.692h-2.77v2.769a.692.692 0 0 1-1.385 0v-2.769h-2.769a.692.692 0 0 1 0-1.385h2.769v-2.769a.692.692 0 0 1 1.385 0v2.769h2.769a.692.692 0 0 1 0 1.385z" transform="translate(-45 -45)"/>
</svg>
