<svg xmlns="http://www.w3.org/2000/svg" id="Icon_Logo_Black_8" width="8" height="7.74" data-name="Icon/Logo/16" viewBox="0 0 16 15.48">
    <defs>
        <style>
            .cls-1{fill:#363d4a}
        </style>
    </defs>
    <g id="Group_1" data-name="Group 1" transform="translate(-84.982 -152.998)">
        <path id="Path_22" d="M93.76 165.112a9.149 9.149 0 0 1 3.1.533 5.639 5.639 0 1 1 8.229 0 9.143 9.143 0 0 1 3.1-.533 8.676 8.676 0 0 1 .912.045 8.8 8.8 0 1 0-16.256 0 8.575 8.575 0 0 1 .915-.045z" class="cls-1" data-name="Path 22"/>
        <path id="Path_23" d="M116.3 170.874a8.791 8.791 0 0 0-7.268-5.337c-.275-.025-.553-.038-.835-.037a8.8 8.8 0 0 0-8.006 5.137c-.036.077-.07.155-.105.233a8.719 8.719 0 0 0-.691 3.424 6.137 6.137 0 0 1-.056.8 5.632 5.632 0 1 1-4.775-6.375 5.56 5.56 0 0 1 1.309.353 5.39 5.39 0 0 1 .667.323 8.837 8.837 0 0 0 3.271 1.117 9.155 9.155 0 0 1 1.878-2.709c.181-.181.368-.353.563-.519a5.674 5.674 0 0 1-4.031-.567 8.757 8.757 0 0 0-4.466-1.215c-.284 0-.564.013-.843.04a8.79 8.79 0 1 0 7.9 14.009l.106-.149a8.775 8.775 0 0 0 1.633-5.108 5.593 5.593 0 1 1 .244 1.658 9.166 9.166 0 0 1-1.582 3.709 9.085 9.085 0 0 0 .751.854 8.8 8.8 0 0 0 14.322-9.643z" class="cls-1" data-name="Path 23"/>
    </g>
</svg>
