<svg xmlns="http://www.w3.org/2000/svg" id="Icon_Cross_8" width="8" height="8" data-name="Icon/Cross/8" viewBox="0 0 8 8">
    <path id="close" fill="#888f9d" d="M235.205 187.058l2.784-2.784a.7.7 0 0 0-.964-1.025l-.029.029-2.785 2.785-2.784-2.785a.7.7 0 0 0-.995 1l2.784 2.784-2.784 2.785a.7.7 0 0 0 .968 1.022l.027-.027 2.784-2.784 2.789 2.78a.7.7 0 0 0 .995-.995z" transform="translate(-230.211 -183.058)"/>
</svg>
