<svg xmlns="http://www.w3.org/2000/svg" id="Icon_More_24" width="24" height="24" data-name="Icon/More/24" viewBox="0 0 24 24">
    <defs>
        <style>
            .cls-2{fill:#607380}
        </style>
    </defs>
    <g id="ellipsis-horizontal" transform="translate(-165.396 -151.541)">
        <circle id="Ellipse_18" cx="1.846" cy="1.846" r="1.846" class="cls-2" data-name="Ellipse 18" transform="translate(175.397 161.695)"/>
        <circle id="Ellipse_19" cx="1.846" cy="1.846" r="1.846" class="cls-2" data-name="Ellipse 19" transform="translate(175.397 167.849)"/>
        <circle id="Ellipse_20" cx="1.846" cy="1.846" r="1.846" class="cls-2" data-name="Ellipse 20" transform="translate(175.397 155.541)"/>
    </g>
</svg>
