<svg xmlns="http://www.w3.org/2000/svg" id="Icon_Add-circle_16" width="16" height="16" data-name="Icon/Add-circle/16" viewBox="0 0 16 16">
    <path id="add-circle" fill="#00a76a" d="M56 48a8 8 0 1 0 8 8 8.009 8.009 0 0 0-8-8zm3.077 8.615h-2.462v2.462a.615.615 0 0 1-1.231 0v-2.462h-2.461a.615.615 0 0 1 0-1.231h2.462v-2.461a.615.615 0 0 1 1.231 0v2.462h2.462a.615.615 0 0 1 0 1.231z" transform="translate(-48 -48)"/>
</svg>
