<svg xmlns="http://www.w3.org/2000/svg" id="Icon_Device_24" width="24" height="24" viewBox="0 0 24 24">
    <defs>
        <style>
            .cls-2{fill:none;stroke:#00a76a;stroke-linecap:round;stroke-linejoin:round;stroke-width:1.5px}
        </style>
    </defs>
    <g id="phone-portrait-outline" transform="translate(-53.906 -164.475)">
        <rect id="Rectangle_266" width="9.6" height="18" class="cls-2" rx="1.8" transform="translate(60.907 167.474)"/>
        <path id="Path_30" d="M62.707 167.474h.9a.3.3 0 0 1 .3.3.6.6 0 0 0 .6.6h2.4a.6.6 0 0 0 .6-.6.3.3 0 0 1 .3-.3h.9" class="cls-2"/>
    </g>
</svg>
