<svg xmlns="http://www.w3.org/2000/svg" id="Icon_Density_24" width="24" height="24" viewBox="0 0 24 24">
    <defs>
        <style>
            .cls-2,.cls-3{fill:#00a76a;stroke:#00a76a;stroke-miterlimit:10;stroke-width:1.5px}.cls-3{fill:none}
        </style>
    </defs>
    <g id="apps-outline" transform="translate(-150.941 -27.621)">
        <path id="Rectangle_266" d="M155.816 30.621a1.875 1.875 0 0 1 1.875 1.875 1.876 1.876 0 0 1-1.875 1.875 1.875 1.875 0 0 1-1.875-1.875 1.874 1.874 0 0 1 1.875-1.875z" class="cls-2"/>
        <path id="Rectangle_267" d="M162.941 30.621a1.875 1.875 0 0 1 1.875 1.875 1.876 1.876 0 0 1-1.875 1.875 1.875 1.875 0 0 1-1.875-1.875 1.874 1.874 0 0 1 1.875-1.875z" class="cls-2"/>
        <path id="Rectangle_268" d="M170.066 30.621a1.875 1.875 0 0 1 1.875 1.875 1.876 1.876 0 0 1-1.875 1.875 1.875 1.875 0 0 1-1.875-1.875 1.874 1.874 0 0 1 1.875-1.875z" class="cls-3"/>
        <path id="Rectangle_269" d="M155.816 37.746a1.875 1.875 0 0 1 1.875 1.875 1.876 1.876 0 0 1-1.875 1.875 1.875 1.875 0 0 1-1.875-1.875 1.874 1.874 0 0 1 1.875-1.875z" class="cls-2"/>
        <path id="Rectangle_270" d="M162.941 37.746a1.875 1.875 0 0 1 1.875 1.875 1.876 1.876 0 0 1-1.875 1.875 1.875 1.875 0 0 1-1.875-1.875 1.874 1.874 0 0 1 1.875-1.875z" class="cls-3"/>
        <path id="Rectangle_271" d="M170.066 37.746a1.875 1.875 0 0 1 1.875 1.875 1.876 1.876 0 0 1-1.875 1.875 1.875 1.875 0 0 1-1.875-1.875 1.874 1.874 0 0 1 1.875-1.875z" class="cls-3"/>
        <path id="Rectangle_272" d="M155.816 44.871a1.875 1.875 0 0 1 1.875 1.875 1.876 1.876 0 0 1-1.875 1.875 1.875 1.875 0 0 1-1.875-1.875 1.874 1.874 0 0 1 1.875-1.875z" class="cls-3"/>
        <path id="Rectangle_273" d="M162.941 44.871a1.875 1.875 0 0 1 1.875 1.875 1.876 1.876 0 0 1-1.875 1.875 1.875 1.875 0 0 1-1.875-1.875 1.874 1.874 0 0 1 1.875-1.875z" class="cls-3"/>
        <path id="Rectangle_274" d="M170.066 44.871a1.875 1.875 0 0 1 1.875 1.875 1.876 1.876 0 0 1-1.875 1.875 1.875 1.875 0 0 1-1.875-1.875 1.874 1.874 0 0 1 1.875-1.875z" class="cls-3"/>
    </g>
</svg>
