<svg xmlns="http://www.w3.org/2000/svg" width="16" height="16" viewBox="0 0 16 16">
    <path fill="none" d="M0 0h16v16H0z"/>
    <path fill="none" stroke="#5d636e" stroke-linecap="round" stroke-linejoin="round" d="M5.2 6.887h1.687V5.2L4.924 3.243a3.364 3.364 0 0 1 4.485 4.484l3.364 3.364a1.189 1.189 0 1 1-1.682 1.682L7.727 9.409a3.364 3.364 0 0 1-4.484-4.485L5.2 6.887"/>
</svg>
