<svg xmlns="http://www.w3.org/2000/svg" id="Icon_Settings_24" width="24" height="24" data-name="Icon/Settings/24" viewBox="0 0 24 24">
    <defs>
        <style>
            .cls-2{fill:#a6afc1}
        </style>
    </defs>
    <g id="icon" transform="translate(-167.761 -180.087)">
        <ellipse id="Ellipse_1" cx="1.929" cy="1.878" class="cls-2" data-name="Ellipse 1" rx="1.929" ry="1.878" transform="translate(177.832 190.209)"/>
        <path id="Path_1" d="M188.374 193.809l-.019-.015-1.268-.969a.624.624 0 0 1-.245-.521v-.453a.621.621 0 0 1 .246-.517l1.267-.969.019-.015a1.024 1.024 0 0 0 .237-1.333l-1.716-2.891-.005-.009a1.094 1.094 0 0 0-1.3-.442h-.014l-1.49.584a.657.657 0 0 1-.582-.05q-.2-.122-.4-.23a.624.624 0 0 1-.33-.462l-.224-1.549-.005-.028a1.086 1.086 0 0 0-1.061-.858h-3.436a1.074 1.074 0 0 0-1.063.876v.022l-.224 1.552a.627.627 0 0 1-.326.463q-.207.108-.4.227a.653.653 0 0 1-.58.05l-1.492-.587-.014-.005a1.094 1.094 0 0 0-1.305.443v.009l-1.718 2.894a1.026 1.026 0 0 0 .237 1.334l.019.015 1.268.968a.625.625 0 0 1 .245.522v.452a.62.62 0 0 1-.246.518l-1.267.969-.019.014a1.026 1.026 0 0 0-.237 1.333l1.716 2.892v.009a1.094 1.094 0 0 0 1.3.442h.014l1.489-.585a.657.657 0 0 1 .582.051c.131.081.265.158.4.229a.624.624 0 0 1 .329.463l.224 1.549.005.028a1.086 1.086 0 0 0 1.064.858h3.436a1.073 1.073 0 0 0 1.062-.876v-.022l.224-1.552a.626.626 0 0 1 .328-.463q.207-.108.4-.228a.656.656 0 0 1 .58-.049l1.492.585.014.005a1.092 1.092 0 0 0 1.3-.444l.005-.008 1.716-2.892a1.025 1.025 0 0 0-.232-1.334zm-5.4-1.575a3.224 3.224 0 1 1-3.077-3.274 3.27 3.27 0 0 1 2.137.916 3.086 3.086 0 0 1 .937 2.358z" class="cls-2" data-name="Path 1"/>
    </g>
</svg>
