<svg xmlns="http://www.w3.org/2000/svg" id="Icon_Screen-size_24" width="24" height="24" data-name="Icon/Screen-size/24" viewBox="0 0 24 24">
    <defs>
        <style>
            .cls-2{fill:none;stroke:#000;stroke-linecap:round;stroke-linejoin:round;stroke-width:1.5px}
        </style>
    </defs>
    <g id="resize-outline" transform="translate(-141.141 -27.732)">
        <path id="Path_30" d="M156.84 31.732h5.6v5.6" class="cls-2" data-name="Path 30" transform="translate(-1.304)"/>
        <path id="Line_5" d="M14.683 0L0 14.685" class="cls-2" data-name="Line 5" transform="translate(145.939 32.242)"/>
        <path id="Path_31" d="M150.738 49.03h-5.6v-5.6" class="cls-2" data-name="Path 31" transform="translate(0 -1.304)"/>
    </g>
</svg>
