<svg xmlns="http://www.w3.org/2000/svg" id="Icon_Trello_16" width="16" height="16" data-name="Icon/Trello/16" viewBox="0 0 16 16">
    <path id="Icon_Trello_16-2" fill="#0079bf" d="M14 0H2a2 2 0 0 0-2 2v12a2 2 0 0 0 2 2h12a2 2 0 0 0 2-2V2a2 2 0 0 0-2-2zM6.96 12.12a.96.96 0 0 1-.96.96H3.04a.961.961 0 0 1-.96-.96V3.04a.96.96 0 0 1 .96-.96H6a.96.96 0 0 1 .96.96v9.08zm6.96-4a.961.961 0 0 1-.96.96H10a.961.961 0 0 1-.96-.96V3.04a.961.961 0 0 1 .96-.96h2.96a.96.96 0 0 1 .96.96v5.08z" data-name="Icon/Trello/16"/>
</svg>
