<svg xmlns="http://www.w3.org/2000/svg" id="Icon_Upload_16" width="16" height="16" data-name="Icon/Upload/16" viewBox="0 0 16 16">
    <defs>
        <style>
            .cls-3{fill:none;stroke:#00a76a;stroke-linecap:round;stroke-linejoin:round;stroke-width:1.5px}
        </style>
    </defs>
    <g id="Icon_Upload_24" data-name="Icon Upload 24" transform="translate(-191.88 -192.048)">
        <path id="grid-2" fill="rgba(0,0,0,0)" stroke="rgba(0,0,0,0)" d="M0 0H12V12H0z" data-name="grid" transform="translate(193.88 194.048)"/>
        <g id="upload">
            <path id="Path_28" d="M205.88 202.048v2.667a1.334 1.334 0 0 1-1.334 1.333h-9.334a1.332 1.332 0 0 1-1.332-1.333v-2.667" class="cls-3" data-name="Path 28"/>
            <path id="Path_29" d="M203.213 197.382l-3.333-3.334-3.334 3.334" class="cls-3" data-name="Path 29"/>
            <path id="Line_1" d="M0 0L0 8" class="cls-3" data-name="Line 1" transform="translate(199.88 194.048)"/>
        </g>
    </g>
</svg>
