<svg xmlns="http://www.w3.org/2000/svg" id="Icon_sdk_24" width="24" height="24" data-name="Icon/sdk/24" viewBox="0 0 24 24">
    <defs>
        <style>
            .cls-2{fill:none;stroke:#000;stroke-linecap:round;stroke-linejoin:round;stroke-width:1.5px}
        </style>
    </defs>
    <g id="Group_950" data-name="Group 950">
        <rect id="Rectangle_333" width="6" height="6" class="cls-2" data-name="Rectangle 333" rx="1" transform="translate(4 4)"/>
        <rect id="Rectangle_334" width="6" height="6" class="cls-2" data-name="Rectangle 334" rx="1" transform="translate(4 14)"/>
        <rect id="Rectangle_335" width="6" height="6" class="cls-2" data-name="Rectangle 335" rx="1" transform="translate(14 14)"/>
        <path id="Line_11" d="M0 0L6 0" class="cls-2" data-name="Line 11" transform="translate(14 7)"/>
        <path id="Line_12" d="M0 0L0 6" class="cls-2" data-name="Line 12" transform="translate(17 4)"/>
    </g>
</svg>
