<svg xmlns="http://www.w3.org/2000/svg" id="Icon_Board_24" width="24" height="24" data-name="Icon/Board/24" viewBox="0 0 24 24">
    <defs>
        <style>
            .cls-3{fill:#a6afc1}
        </style>
    </defs>
    <g id="Group_87" data-name="Group 87" transform="translate(-76.118 -226.494)">
        <path id="kanban" fill="#a6afc1" fill-rule="evenodd" d="M87.218 231.294v14.4a1.8 1.8 0 0 1-1.8 1.8h-4.5a1.8 1.8 0 0 1-1.8-1.8v-14.4a1.8 1.8 0 0 1 1.8-1.8h4.5a1.8 1.8 0 0 1 1.8 1.8zm-1.8 0h-4.5v14.4h4.5zm11.7 0v10.8a1.8 1.8 0 0 1-1.8 1.8h-4.5a1.8 1.8 0 0 1-1.8-1.8v-10.8a1.8 1.8 0 0 1 1.8-1.8h4.5a1.8 1.8 0 0 1 1.8 1.8zm-1.8 0h-4.5v10.8h4.5z"/>
        <path id="Rectangle_111" d="M0 0H6V15H0z" class="cls-3" data-name="Rectangle 111" transform="translate(80 231)"/>
        <path id="Rectangle_112" d="M0 0H6V12H0z" class="cls-3" data-name="Rectangle 112" transform="translate(90 231)"/>
    </g>
</svg>
