<svg xmlns="http://www.w3.org/2000/svg" width="24" height="24" viewBox="0 0 24 24">
    <g>
        <g>
            <path fill="#ff0b16" d="M19.423 36.8l-8.057-14.584a1.711 1.711 0 0 0-1.5-.882h-.1a1.711 1.711 0 0 0-1.5.883L.213 36.8a1.71 1.71 0 0 0 1.5 2.537h16.214a1.71 1.71 0 0 0 1.5-2.537zm-6.43-4.97l-4.909 5.725a.41.41 0 0 1-.311.143.409.409 0 0 1-.38-.561l1.412-3.53h-1.85a.408.408 0 0 1-.385-.547l2.045-5.727A.409.409 0 0 1 9 27.061h2.864a.409.409 0 0 1 .38.561l-1.412 3.53h1.851a.409.409 0 0 1 .311.675z" transform="translate(2 -18.334) translate(0 21.334) translate(0 -21.334)"/>
        </g>
    </g>
</svg>
