<?xml version="1.0" encoding="utf-8"?>
<svg id="severity_level4" width="650" height="565" version="1.1" xmlns="http://www.w3.org/2000/svg">
  <path d="M 63.98 560 C 63.98 560 303.65 543.867 193.03 341.07 C 105.46 179.75 126.198 85.27 239.12 0 C 239.12 0 -129.6 94.484 84.72 384.86 C 163.075 509.31 63.978 560 63.978 560 L 63.98 560 Z" fill-rule="evenodd" id="svg_23" style="stroke-width: 5px; fill: rgb(239, 69, 54);"/>
  <path d="M 264.47 560 C 264.47 560 504.14 543.867 393.52 341.07 C 305.95 179.75 326.688 85.27 439.61 0 C 439.61 0 70.89 94.484 285.21 384.86 C 363.565 509.31 264.468 560 264.468 560 L 264.47 560 Z" fill-rule="evenodd" id="svg_24" style="stroke-width: 5px; fill: rgb(239, 69, 54);"/>
  <path d="M 464.97 560 C 464.97 560 704.64 543.867 594.02 341.07 C 506.45 179.75 527.188 85.27 640.11 0 C 640.11 0 271.39 94.484 485.71 384.86 C 564.065 509.31 464.968 560 464.968 560 L 464.97 560 Z" fill-rule="evenodd" id="svg_25" style="stroke-width: 5px; fill: rgb(239, 69, 54);"/>
</svg>