<svg xmlns="http://www.w3.org/2000/svg" width="14" height="14" viewBox="0 0 14 14">
    <path id="Icon" fill="#607380" d="M48 55a7 7 0 1 0 7-7 7 7 0 0 0-7 7zm7.156-3.075a.538.538 0 0 1 0 .762L53.4 54.462h4.5a.538.538 0 1 1 0 1.077h-4.5l1.761 1.775a.539.539 0 0 1-.765.759l-2.672-2.692a.538.538 0 0 1 0-.759l2.672-2.692a.538.538 0 0 1 .762 0z" transform="rotate(-90 7 55)"/>
</svg>
